DSC week 14 IP part1 and with R
…
### checking our dataset class
class(sales_dataset)

## [1] "data.frame"

this dataset is of the class data.frame.

converting the data into a tibble for easy manupulation

#For ease in analysis,we convert the data into a tibble
df_sales<-as_tibble(sales_dataset) # there is suggestion to use as_tibble instead of as.tibble.
df_sales

## # A tibble: 1,000 x 16
##    Invoice.ID Branch Customer.type Gender Product.line Unit.price Quantity   Tax
##    <chr>      <chr>  <chr>         <chr>  <chr>             <dbl>    <int> <dbl>
##  1 750-67-84~ A      Member        Female Health and ~       74.7        7 26.1 
##  2 226-31-30~ C      Normal        Female Electronic ~       15.3        5  3.82
##  3 631-41-31~ A      Normal        Male   Home and li~       46.3        7 16.2 
##  4 123-19-11~ A      Member        Male   Health and ~       58.2        8 23.3 
##  5 373-73-79~ A      Normal        Male   Sports and ~       86.3        7 30.2 
##  6 699-14-30~ C      Normal        Male   Electronic ~       85.4        7 29.9 
##  7 355-53-59~ A      Member        Female Electronic ~       68.8        6 20.7 
##  8 315-22-56~ C      Normal        Female Home and li~       73.6       10 36.8 
##  9 665-32-91~ A      Member        Female Health and ~       36.3        2  3.63
## 10 692-92-55~ B      Member        Female Food and be~       54.8        3  8.23
## # ... with 990 more rows, and 8 more variables: Date <chr>, Time <chr>,
## #   Payment <chr>, cogs <dbl>, gross.margin.percentage <dbl>,
## #   gross.income <dbl>, Rating <dbl>, Total <dbl>
…
## In case you would like cite this package, cite it as:
##      Patil, I. (2018). ggstatsplot: "ggplot2" Based Plots with Statistical Details. CRAN.
##      Retrieved from https://cran.r-project.org/web/packages/ggstatsplot/index.html

###3.2a Identifying the numeric class in the data and evaluating if there are any outliers

#Checking the data types of the columns
#
Numeric<- df_sales %>% select_if(is.numeric)
Numeric

## # A tibble: 1,000 x 8
##    Unit.price Quantity   Tax  cogs gross.margin.perce~ gross.income Rating Total
##         <dbl>    <int> <dbl> <dbl>               <dbl>        <dbl>  <dbl> <dbl>
##  1       74.7        7 26.1  523.                 4.76        26.1     9.1 549. 
##  2       15.3        5  3.82  76.4                4.76         3.82    9.6  80.2
##  3       46.3        7 16.2  324.                 4.76        16.2     7.4 341. 
##  4       58.2        8 23.3  466.                 4.76        23.3     8.4 489. 
##  5       86.3        7 30.2  604.                 4.76        30.2     5.3 634. 
##  6       85.4        7 29.9  598.                 4.76        29.9     4.1 628. 
##  7       68.8        6 20.7  413.                 4.76        20.7     5.8 434. 
##  8       73.6       10 36.8  736.                 4.76        36.8     8   772. 
##  9       36.3        2  3.63  72.5                4.76         3.63    7.2  76.1
## 10       54.8        3  8.23 165.                 4.76         8.23    5.9 173. 
## # ... with 990 more rows
…
